<svg width="19" height="26" viewBox="0 0 19 26" fill="none" xmlns="http://www.w3.org/2000/svg">
<path fill-rule="evenodd" clip-rule="evenodd" d="M3.8175 5.62796C3.8175 2.66196 6.15585 0.257538 9.04035 0.257538C11.9248 0.257538 14.2632 2.66196 14.2632 5.62796V11.606C14.2632 14.572 11.9248 16.9765 9.04035 16.9765C6.15585 16.9765 3.8175 14.572 3.8175 11.606V5.62796ZM9.04035 2.24658C7.22418 2.24658 5.75189 3.76047 5.75189 5.62796V11.606C5.75189 13.4735 7.22418 14.9874 9.04035 14.9874C10.8565 14.9874 12.3288 13.4735 12.3288 11.606V5.62796C12.3288 3.76047 10.8565 2.24658 9.04035 2.24658Z" fill="white"/>
<path fill-rule="evenodd" clip-rule="evenodd" d="M1.02147 10.3796C1.57506 10.3796 2.02383 10.8323 2.02383 11.3907V12.1997C2.02383 16.1088 5.16525 19.2778 9.04038 19.2778C12.9155 19.2778 16.0569 16.1088 16.0569 12.1997V11.3907C16.0569 10.8323 16.5057 10.3796 17.0593 10.3796C17.6129 10.3796 18.0617 10.8323 18.0617 11.3907V12.1997C18.0617 17.2257 14.0227 21.3001 9.04038 21.3001C4.05807 21.3001 0.019104 17.2257 0.019104 12.1997V11.3907C0.019104 10.8323 0.467878 10.3796 1.02147 10.3796Z" fill="white"/>
<path fill-rule="evenodd" clip-rule="evenodd" d="M9.04025 19.4009C9.5647 19.4009 9.98985 19.8327 9.98985 20.3653V24.6089C9.98985 25.1415 9.5647 25.5733 9.04025 25.5733C8.51579 25.5733 8.09064 25.1415 8.09064 24.6089V20.3653C8.09064 19.8327 8.51579 19.4009 9.04025 19.4009Z" fill="white"/>
</svg>
